<?xml version="1.0"?>
<font>
  <info face="YouMurderer BB" size="100" bold="0" italic="0" charset="" unicode="1" stretchH="100" smooth="1" aa="1" padding="1,1,1,1" spacing="1,1" outline="0"/>
  <common lineHeight="99" base="78" scaleW="400" scaleH="400" pages="1" packed="0" alphaChnl="0" redChnl="4" greenChnl="4" blueChnl="4"/>
  <pages>
    <page id="0" file="TerrorFontTitles_0.png" />
  </pages>
  <chars count="30">
    <char id="97" x="81" y="0" width="45" height="82" xoffset="-1" yoffset="18" xadvance="32" page="0" chnl="15" />
    <char id="98" x="0" y="0" width="56" height="87" xoffset="-10" yoffset="11" xadvance="43" page="0" chnl="15" />
    <char id="99" x="0" y="88" width="59" height="74" xoffset="-8" yoffset="24" xadvance="43" page="0" chnl="15" />
    <char id="100" x="349" y="151" width="50" height="65" xoffset="-2" yoffset="22" xadvance="45" page="0" chnl="15" />
    <char id="101" x="58" y="163" width="53" height="70" xoffset="-3" yoffset="17" xadvance="43" page="0" chnl="15" />
    <char id="102" x="302" y="0" width="51" height="78" xoffset="-4" yoffset="16" xadvance="44" page="0" chnl="15" />
    <char id="103" x="251" y="223" width="61" height="53" xoffset="-11" yoffset="30" xadvance="45" page="0" chnl="15" />
    <char id="104" x="185" y="82" width="58" height="72" xoffset="-5" yoffset="17" xadvance="42" page="0" chnl="15" />
    <char id="105" x="278" y="153" width="20" height="67" xoffset="1" yoffset="25" xadvance="17" page="0" chnl="15" />
    <char id="106" x="354" y="75" width="43" height="67" xoffset="-1" yoffset="21" xadvance="37" page="0" chnl="15" />
    <char id="107" x="60" y="85" width="64" height="72" xoffset="-11" yoffset="19" xadvance="44" page="0" chnl="15" />
    <char id="108" x="127" y="228" width="43" height="60" xoffset="0" yoffset="17" xadvance="37" page="0" chnl="15" />
    <char id="109" x="125" y="83" width="59" height="72" xoffset="-4" yoffset="15" xadvance="54" page="0" chnl="15" />
    <char id="110" x="171" y="225" width="36" height="60" xoffset="1" yoffset="20" xadvance="37" page="0" chnl="15" />
    <char id="111" x="219" y="155" width="58" height="67" xoffset="-2" yoffset="19" xadvance="48" page="0" chnl="15" />
    <char id="112" x="163" y="156" width="55" height="68" xoffset="-8" yoffset="13" xadvance="39" page="0" chnl="15" />
    <char id="113" x="0" y="234" width="75" height="64" xoffset="-8" yoffset="12" xadvance="62" page="0" chnl="15" />
    <char id="114" x="299" y="153" width="49" height="66" xoffset="-3" yoffset="12" xadvance="40" page="0" chnl="15" />
    <char id="115" x="112" y="158" width="50" height="69" xoffset="0" yoffset="13" xadvance="44" page="0" chnl="15" />
    <char id="116" x="76" y="234" width="50" height="63" xoffset="-7" yoffset="14" xadvance="33" page="0" chnl="15" />
    <char id="117" x="208" y="225" width="42" height="59" xoffset="1" yoffset="15" xadvance="43" page="0" chnl="15" />
    <char id="118" x="354" y="0" width="41" height="74" xoffset="-1" yoffset="11" xadvance="34" page="0" chnl="15" />
    <char id="119" x="0" y="163" width="57" height="70" xoffset="-2" yoffset="8" xadvance="51" page="0" chnl="15" />
    <char id="120" x="305" y="79" width="48" height="71" xoffset="-2" yoffset="8" xadvance="43" page="0" chnl="15" />
    <char id="121" x="254" y="0" width="47" height="80" xoffset="-4" yoffset="12" xadvance="37" page="0" chnl="15" />
    <char id="122" x="244" y="81" width="60" height="71" xoffset="-13" yoffset="10" xadvance="42" page="0" chnl="15" />
    <char id="123" x="192" y="0" width="61" height="80" xoffset="3" yoffset="7" xadvance="66" page="0" chnl="15" />
    <char id="124" x="57" y="0" width="23" height="84" xoffset="4" yoffset="12" xadvance="21" page="0" chnl="15" />
    <char id="125" x="127" y="0" width="64" height="81" xoffset="1" yoffset="5" xadvance="66" page="0" chnl="15" />
    <char id="213" x="313" y="220" width="68" height="3" xoffset="-23" yoffset="97" xadvance="120" page="0" chnl="15" />
  </chars>
  <kernings count="5">
    <kerning first="121" second="106" amount="-7" />
    <kerning first="116" second="106" amount="-5" />
    <kerning first="116" second="103" amount="-5" />
    <kerning first="108" second="116" amount="-7" />
    <kerning first="97" second="116" amount="-5" />
  </kernings>
</font>
